alpine-baselayout-3.2.0-r8
alpine-keys-2.2-r0
apk-tools-2.12.5-r0
bash-5.1.0-r0
brotli-libs-1.0.9-r3
busybox-1.32.1-r6
ca-certificates-20191127-r5
ca-certificates-bundle-20191127-r5
coreutils-8.32-r2
curl-7.76.1-r0
expat-2.2.10-r1
gdbm-1.19-r0
libacl-2.2.53-r0
libattr-2.4.48-r0
libbz2-1.0.8-r1
libc-utils-0.7.2-r3
libcrypto1.1-1.1.1k-r0
libcurl-7.76.1-r0
libffi-3.3-r2
libgcc-10.2.1_pre1-r3
libgcrypt-1.8.7-r0
libgpg-error-1.41-r0
libidn2-2.3.0-r0
libintl-0.20.2-r2
libproc-3.3.16-r0
libssl1.1-1.1.1k-r0
libstdc++-10.2.1_pre1-r3
libtls-standalone-2.9.1-r1
libunistring-0.9.10-r0
libxml2-2.9.10-r6
libxslt-1.1.34-r0
linux-pam-1.5.1-r0
musl-1.2.2-r0
musl-utils-1.2.2-r0
ncurses-libs-6.2_p20210109-r0
ncurses-terminfo-base-6.2_p20210109-r0
nghttp2-libs-1.42.0-r1
openssl-1.1.1k-r0
p7zip-16.02-r4
procps-3.3.16-r0
py3-appdirs-1.4.4-r1
py3-cachecontrol-0.12.6-r0
py3-chardet-4.0.0-r0
py3-colorama-0.4.4-r0
py3-contextlib2-0.6.0-r0
py3-distlib-0.3.1-r1
py3-distro-1.5.0-r1
py3-html5lib-1.1-r0
py3-idna-3.1-r0
py3-lockfile-0.12.2-r3
py3-msgpack-1.0.2-r0
py3-ordered-set-4.0.2-r0
py3-packaging-20.9-r0
py3-parsing-2.4.7-r1
py3-pep517-0.9.1-r0
py3-pip-20.3.4-r0
py3-progress-1.5-r0
py3-pytoml-0.1.21-r0
py3-requests-2.25.1-r1
py3-retrying-1.3.3-r0
py3-setuptools-51.3.3-r0
py3-six-1.15.0-r0
py3-toml-0.10.2-r0
py3-urllib3-1.26.2-r1
py3-webencodings-0.5.1-r3
python3-3.8.10-r0
readline-8.1.0-r0
s6-ipcserver-2.10.0.0-r0
scanelf-1.2.8-r0
shadow-4.8.1-r0
skalibs-2.10.0.0-r0
sqlite-libs-3.34.1-r0
ssl_client-1.32.1-r6
tzdata-2021a-r0
unrar-6.0.3-r0
utmps-0.1.0.0-r0
wget-1.21.1-r1
xz-5.2.5-r0
xz-libs-5.2.5-r0
zlib-1.2.11-r3
